{
  "tile": {
    "name": "big circle",
    "svg": "<svg id=\"tiles_big circle\" width=\"4em\" height=\"4em\" viewBox=\"-0.5 -0.5 1 1\" xmlns=\"http://www.w3.org/2000/svg\"><svg id=\"tiles_big circle\" width=\"4em\" height=\"4em\" viewBox=\"-0.5 -0.5 1 1\" xmlns=\"http://www.w3.org/2000/svg\"><circle r=\"0.45\" stroke=\"black\" stroke-width=\"0.05\" fill=\"transparent\"/></svg></svg>"
  },
  "size": {
    "min": {
      "r": 3,
      "c": 3
    },
    "max": {
      "r": 3,
      "c": 3
    }
  },
  "choices": [
    {
      "type": "corridor",
      "options": [
        {
          "weight": 1,
          "doorRegion": "Coin",
          "placement": "randomly",
          "path": "random walk",
          "segmentLen": {
            "min": 3,
            "max": 3
          },
          "segmentNum": {
            "min": 2,
            "max": 4
          },
          "atPos": {
            "r": 0,
            "c": 0
          },
          "endingRegion": "Coin",
          "repeatRange": {
            "min": 2,
            "max": 2
          },
          "pathTile": {
            "name": "blank",
            "svg": "<svg id=\"tiles_blank\" width=\"4em\" height=\"4em\" viewBox=\"-0.5 -0.5 1 1\" xmlns=\"http://www.w3.org/2000/svg\"></svg>"
          }
        }
      ]
    }
  ],
  "name": "Square"
}